[{"officeId":1,"officeName":"Londonderry","officeLatitud":-20.5558832,"officeLongitud":-48.5762695},
{"officeId":2,"officeName":"Eggendart","officeLatitud":"-14.33056","officeLongitud":"-170.75278"},
{"officeId":3,"officeName":"Myrtle","officeLatitud":48.3605267,"officeLongitud":22.3908266},
{"officeId":4,"officeName":"Lindbergh","officeLatitud":-7.1929741,"officeLongitud":111.7197315},
{"officeId":5,"officeName":"Rigney","officeLatitud":55.3315791,"officeLongitud":38.8842656},
{"officeId":6,"officeName":"Sommers","officeLatitud":11.0002604,"officeLongitud":122.740723},
{"officeId":7,"officeName":"Miller","officeLatitud":-27.9699645,"officeLongitud":26.77027},
{"officeId":8,"officeName":"Judy","officeLatitud":48.6739771,"officeLongitud":28.8563795}]